…
Now that everything is sorted, we can pipe our work into a kable command like before to make an appealing table.

## Selecting Columns and Rows


::: {.cell}

```{.r .cell-code}
penguins |>
  select(species, island, sex, year)
```

::: {.cell-output .cell-output-stdout}
```
# A tibble: 44 × 4
   species island sex    year
   <chr>   <chr>  <chr> <dbl>
 1 Gentoo  Biscoe male   2007
 2 Gentoo  Biscoe male   2008
 3 Gentoo  Biscoe male   2009
 4 Gentoo  Biscoe male   2009
 5 Gentoo  Biscoe male   2009
 6 Gentoo  Biscoe male   2009
 7 Gentoo  Biscoe male   2008
 8 Gentoo  Biscoe male   2009
 9 Gentoo  Biscoe male   2008
10 Gentoo  Biscoe male   2007
# ℹ 34 more rows
```
…
