Palmer Penguins Initial Analysis
…
third_quartile_bill_length
49.125000

standard_deviation_bill_length
4.930379

Now that everything is sorted, we can pipe our work into a kable command like before to make an appealing table.

Selecting Columns and Rows

penguins |>
  select(species, island, sex, year)

# A tibble: 44 × 4
   species island sex    year
   <chr>   <chr>  <chr> <dbl>
 1 Gentoo  Biscoe male   2007
 2 Gentoo  Biscoe male   2008
 3 Gentoo  Biscoe male   2009
 4 Gentoo  Biscoe male   2009
 5 Gentoo  Biscoe male   2009
 6 Gentoo  Biscoe male   2009
 7 Gentoo  Biscoe male   2008
 8 Gentoo  Biscoe male   2009
 9 Gentoo  Biscoe male   2008
10 Gentoo  Biscoe male   2007
# ℹ 34 more rows
…
